[
  {
    "id": "64630e39e85d2d64cfa5e344",
    "name": "(copy) ca139 - chilt004 - Data Use Agreement Form",
    "schoolId": "0674723"
  },
  {
    "id": "63a317bf776ba3d8a349c257",
    "name": "+Programs Non-Comp Payroll",
    "schoolId": "0097856"
  },
  {
    "id": "64b066f95e830200f90b582a",
    "name": "------sjc98------ Integrations Library",
    "schoolId": "1262516"
  },
  {
    "id": "64b1708e5e830200f9ce6f12",
    "name": "------sjc98------ Integrations Library (Copy)",
    "schoolId": "1262516"
  },
  {
    "id": "64b1c1385e830200f9cb162c",
    "name": "---Production---- OIT Service Desk Request",
    "schoolId": "1262516"
  },
  {
    "id": "64af71b136221000f8fe6bc1",
    "name": "A&S Division Funding Request NEW",
    "schoolId": "0254568"
  },
  {
    "id": "6446c258c39ebc327aa6069a",
    "name": "A&S Division Funding Request prev version",
    "schoolId": "0050896"
  },
  {
    "id": "64af6e5e36221000f8a812d1",
    "name": "A&S Division Funding Request updated (Copy)",
    "schoolId": "1262516"
  },
  {
    "id": "63582c08a4b6e22892e82b76",
    "name": "AGM Application",
    "schoolId": "0493710"
  },
  {
    "id": "64398bcae2b7198df2f94f77",
    "name": "AGM Application (Copy)",
    "schoolId": "0493710"
  },
  {
    "id": "649daed0c949cd00f9f509ff",
    "name": "AGM Capstone Presentation Evaluations",
    "schoolId": "0493710"
  },
  {
    "id": "646f9c1643a3590209fbbc0a",
    "name": "AGM Class Peer Evaluations",
    "schoolId": "0493710"
  },
  {
    "id": "63596cb1784fc58329cee647",
    "name": "AGM Supervisor Approval",
    "schoolId": "0493710"
  },
  {
    "id": "64398be1e2b7198df2f9652f",
    "name": "AGM Supervisor Approval (Copy)",
    "schoolId": "0493710"
  },
  {
    "id": "6307d876e2b5fe1b0490d119",
    "name": "Academic Plan Request",
    "schoolId": "0693456"
  },
  {
    "id": "630f79e1f4e6e8f97ed44598",
    "name": "Add People to get security things",
    "schoolId": "0452821"
  },
  {
    "id": "638902ded57016ce31269a44",
    "name": "Add or Remove an Individual's Building Access",
    "schoolId": "0478307"
  },
  {
    "id": "630f7c64f4e6e8f97ed67b91",
    "name": "Add people to get security things (V2)",
    "schoolId": "0452821"
  },
  {
    "id": "630f7cb2f4e6e8f97ed742ef",
    "name": "Add people to get security things (V2) (backup)",
    "schoolId": "0452821"
  },
  {
    "id": "6219264479f70ce8b7ae4c21",
    "name": "Adobe Sign Access Request",
    "schoolId": "0622099"
  },
  {
    "id": "645cef9696e8ee5f5729d3b7",
    "name": "Agility User Account Request",
    "schoolId": "0665738"
  },
  {
    "id": "64a84d6098339100fb0f3b75",
    "name": "Agility User Account Request (TEST)",
    "schoolId": "0665738"
  },
  {
    "id": "63c7f87cb1c24744152922cc",
    "name": "Agility User Account Request DRAFT (copy)",
    "schoolId": "0665738"
  },
  {
    "id": "645534e475b96ab2012b5d22",
    "name": "Animal Order Form",
    "schoolId": "0491990"
  },
  {
    "id": "624cc5f2b35fe06bbbf204b2",
    "name": "Anna's Test App",
    "schoolId": "0630762"
  },
  {
    "id": "62cc321fd54074d13516aeea",
    "name": "Azure App review",
    "schoolId": "1171542"
  },
  {
    "id": "63e65d4e3981ce38d813213b",
    "name": "Biographical Data Form - Student Hires",
    "schoolId": "1187620"
  },
  {
    "id": "64a5a8ec47fa4800f9ac9cc3",
    "name": "Biographical data - H",
    "schoolId": "0565198"
  },
  {
    "id": "6241c5d8853cfe21ed08c3f2",
    "name": "Bowen - GitLab Project",
    "schoolId": "0603448"
  },
  {
    "id": "645464839c0c75ad21acdbb0",
    "name": "Breeding Service Request",
    "schoolId": "0491990"
  },
  {
    "id": "63372b618775b1a9c43a1629",
    "name": "CUI (NIST 800-171) attestation [for PI] type 1",
    "schoolId": "0576323"
  },
  {
    "id": "645e9dc4cd4fc23b25de7a0f",
    "name": "Clinical and Surgical Services Charges",
    "schoolId": "0491990"
  },
  {
    "id": "62cf1d6ceaa604ade450ac5a",
    "name": "CoLab Student Dev Onboarding",
    "schoolId": "0700682"
  },
  {
    "id": "63c866bfb1c24744158a731e",
    "name": "Code+ Application",
    "schoolId": "0097856"
  },
  {
    "id": "639a209b792b18f56ff1308d",
    "name": "Code+ Application (Test)",
    "schoolId": "0097856"
  },
  {
    "id": "63e672d7d794849ea38c87c0",
    "name": "Code+ Application Response",
    "schoolId": "0097856"
  },
  {
    "id": "63da888c8ff35935e13cf1e9",
    "name": "Code+ Payroll",
    "schoolId": "1187620"
  },
  {
    "id": "64111706f4e2d819659307d9",
    "name": "Collaborative Services Assessment Quiz",
    "schoolId": "0598512"
  },
  {
    "id": "6490ae3611eb790209e30a32",
    "name": "Create Your Own Integration!",
    "schoolId": "1262516"
  },
  {
    "id": "6425cae22dc31f7137818a0f",
    "name": "DHIP Life Insurance",
    "schoolId": "0219718"
  },
  {
    "id": "645e7a81cd4fc23b25c2bbc9",
    "name": "DLAR Feed Order Form",
    "schoolId": "0491990"
  },
  {
    "id": "645aae8de4f69db941b1514f",
    "name": "DLAR Order Form",
    "schoolId": "0491990"
  },
  {
    "id": "6467b421d109b1811375875c",
    "name": "DLAR Travel Request",
    "schoolId": "0288786"
  },
  {
    "id": "63189d32f736358fa8ebbbcd",
    "name": "DOCR Office Access",
    "schoolId": "0547605"
  },
  {
    "id": "63d3f0510d2d36b91e5e2498",
    "name": "DORI Writing Seminars Registration Form",
    "schoolId": "0483889"
  },
  {
    "id": "6421e53d4b9bde72c2c88c98",
    "name": "DRAFT - Contract Intake",
    "schoolId": "0097856"
  },
  {
    "id": "6463bf2c6637b308f6a37505",
    "name": "DRAFT - Contract Intake (sww)",
    "schoolId": "0050896"
  },
  {
    "id": "62ed1295a34ae53464544606",
    "name": "DT Test",
    "schoolId": "0096521"
  },
  {
    "id": "638f57e84dc09bc59f903c87",
    "name": "DTech Housing Stipend Agreement",
    "schoolId": "1257878"
  },
  {
    "id": "63f7ab40cfadfa1804b8abf8",
    "name": "DTech Housing Stipend Request",
    "schoolId": "1257878"
  },
  {
    "id": "64639667e85d2d64cfcfcb0a",
    "name": "DTech Housing Stipend Request (Copy)",
    "schoolId": "0097856"
  },
  {
    "id": "638f57754dc09bc59f8f86ec",
    "name": "DTech Housing Stipend Request - OLD",
    "schoolId": "1257878"
  },
  {
    "id": "63c6d5e84f104d0015452d46",
    "name": "DTech New Member Application",
    "schoolId": "1257878"
  },
  {
    "id": "63c948c0b1c2474415aa1eb1",
    "name": "DTech New Member Application-Copy Testing Only",
    "schoolId": "1257878"
  },
  {
    "id": "63c9480a5972ba301b367fd9",
    "name": "DTech Scholars Application",
    "schoolId": "1257878"
  },
  {
    "id": "6376401446393b72ec4c4166",
    "name": "DTech Scholars Application-Old Testing Only",
    "schoolId": "1257878"
  },
  {
    "id": "6488b50b5d2fc802099cd477",
    "name": "DUPD - Property Report",
    "schoolId": "0117374"
  },
  {
    "id": "63907d754dc09bc59f14a1a1",
    "name": "Data+ Offer Response 2023",
    "schoolId": "0583483"
  },
  {
    "id": "63dac5a68ff35935e1a07d11",
    "name": "Data+ PM Intake",
    "schoolId": "1187620"
  },
  {
    "id": "63e15f78c59118e7f8e8db22",
    "name": "Data+ Payroll",
    "schoolId": "1187620"
  },
  {
    "id": "6387a970d57016ce31bf5bd1",
    "name": "Data+/Climate+/Applied Ethics+ 2023 Application (Test)",
    "schoolId": "0583483"
  },
  {
    "id": "63c824295972ba301b2a6128",
    "name": "Data+/Climate+/Applied Ethics+ 2023 Application - Duke",
    "schoolId": "0097856"
  },
  {
    "id": "63c82724b1c2474415503bbd",
    "name": "Data+/Climate+/Applied Ethics+ 2023 Application - Non-Duke",
    "schoolId": "0097856"
  },
  {
    "id": "63c824fd5972ba301b2c2e36",
    "name": "Data+/Climate+/Applied Ethics+ 2023 Application - Non-Duke (Test)",
    "schoolId": "0097856"
  },
  {
    "id": "63c852a75972ba301b7fc391",
    "name": "Data+/Climate+/Applied Ethics+ 2023 Application - Non-Duke Response",
    "schoolId": "0097856"
  },
  {
    "id": "6464e09ce1bd2b7ef5b13d5c",
    "name": "DaxTest",
    "schoolId": "1251242"
  },
  {
    "id": "63d3dacb0d2d36b91e517867",
    "name": "Demo App",
    "schoolId": "0622099"
  },
  {
    "id": "6495ee4c635e9302094177f9",
    "name": "Demo for User Look up",
    "schoolId": "0622099"
  },
  {
    "id": "63d95cd2b7c971cfb8711cd3",
    "name": "Department Card Requests",
    "schoolId": "0453153"
  },
  {
    "id": "64aefd52b12d2100f9a83d5f",
    "name": "Dining Gift Card's Request",
    "schoolId": "0453153"
  },
  {
    "id": "638df4400f9fd417eb7b5c51",
    "name": "Dining Manual Forms Submission",
    "schoolId": "0478307"
  },
  {
    "id": "638623d1a174196dc67e980f",
    "name": "Disability Management - Employee Accommodation Request",
    "schoolId": "0221351"
  },
  {
    "id": "649b2529eddd2c00f846c721",
    "name": "Divinity IT Device Request",
    "schoolId": "0218465"
  },
  {
    "id": "6388f337d57016ce311bddac",
    "name": "Download Door Schedule",
    "schoolId": "0478307"
  },
  {
    "id": "647f290ef3e7970208a066bb",
    "name": "Duke Press - Kuali Interest Form",
    "schoolId": "0696289"
  },
  {
    "id": "627c08248fad7d1a8d83052f",
    "name": "Duke Press - New Hire Process",
    "schoolId": "0696289"
  },
  {
    "id": "643830d36d15057a71e76253",
    "name": "Duke Press - SPC Indexer Set Up Request Form",
    "schoolId": "0696289"
  },
  {
    "id": "646f6e2143a35902098bbed2",
    "name": "Duke Press - SPC Journal Onboarding",
    "schoolId": "0718621"
  },
  {
    "id": "62697539b0b04995e2b1f5c4",
    "name": "Duke Research Data Lifecycle",
    "schoolId": "0268537"
  },
  {
    "id": "6487425e3e9a280209cc8c11",
    "name": "Duke SA Financial Service Portal",
    "schoolId": "0458186"
  },
  {
    "id": "644fcabac39ebc327ae38f52",
    "name": "Duke SA HR: DRAFT Requisition BACKUP",
    "schoolId": "0458186"
  },
  {
    "id": "6426f5572dc31f713790bf83",
    "name": "Duke SA HR: DRAFT Requisition May2023",
    "schoolId": "0458186"
  },
  {
    "id": "626fec4ab0b04995e2e6289b",
    "name": "Duke SA HR: Request Job Req FEB2023",
    "schoolId": "0458186"
  },
  {
    "id": "64835375a58bc20209d39fa1",
    "name": "Duke SA ITS: Monthly Outcomes Report",
    "schoolId": "0458186"
  },
  {
    "id": "638def4ff8031abab0afde3c",
    "name": "DukeCard Data Request",
    "schoolId": "0478307"
  },
  {
    "id": "638f62424dc09bc59f9b0873",
    "name": "DukeCard Data Request (Copy w changes)",
    "schoolId": "0453153"
  },
  {
    "id": "643ddab6a7aa18f88b9ed4be",
    "name": "DukeCard Flex and Attendance Reader Request Form",
    "schoolId": "1262516"
  },
  {
    "id": "638f7ab44dc09bc59fbb8e45",
    "name": "DukeCard Flex and Attendance Reader Request Form (JONATHAN)",
    "schoolId": "0453153"
  },
  {
    "id": "625fff7129756544d089dbd3",
    "name": "EIS Demo",
    "schoolId": "0540911"
  },
  {
    "id": "62616f00ad1df16b2bceb0a4",
    "name": "EIS Demo2",
    "schoolId": "0540911"
  },
  {
    "id": "634f0b33376749e9b563b1f7",
    "name": "EOHW - Ebola Symptom Monitoring",
    "schoolId": "0665738"
  },
  {
    "id": "62570eddde0285d8b25d5170",
    "name": "EOHW - Exposures Intake Form",
    "schoolId": "0050896"
  },
  {
    "id": "62b36d3e09c6e24d7999c5a0",
    "name": "EOHW - Exposures Safety Report for OESO",
    "schoolId": "0050896"
  },
  {
    "id": "62bca6a0a20ded3bf74843fd",
    "name": "EOHW - Monkeypox Symptom Monitoring",
    "schoolId": "0665738"
  },
  {
    "id": "622f563dd68e3e042e8b5746",
    "name": "EOHW - vaccination outside documentation",
    "schoolId": "0050896"
  },
  {
    "id": "6230ab7dcdc83378900269c0",
    "name": "EOHW - vaccination outside documentation (DEV)",
    "schoolId": "0050896"
  },
  {
    "id": "62016db67f4c57a33b90fbaa",
    "name": "EOHW - vaccination outside documentation (TEST)",
    "schoolId": "0435319"
  },
  {
    "id": "641b21859f458633bdfdc60e",
    "name": "EOHW Placement Documentation Portal",
    "schoolId": "0674723"
  },
  {
    "id": "632ca5f894e8e17f2383894f",
    "name": "Emma Intake",
    "schoolId": "0452821"
  },
  {
    "id": "636e756dc34799c6d0d12527",
    "name": "ErrorTesting",
    "schoolId": "0622099"
  },
  {
    "id": "625d764098b550aaa3efd683",
    "name": "Exit Test Interest Form (DEV)",
    "schoolId": "0598172"
  },
  {
    "id": "630cfb4a66c022eb3fb71291",
    "name": "Expense Approval Request",
    "schoolId": "0547605"
  },
  {
    "id": "635475b986082e45f78a0286",
    "name": "Faculty Professorships",
    "schoolId": "0614679"
  },
  {
    "id": "64a4a24d47fa4800f9b9f151",
    "name": "Feature Request Form",
    "schoolId": "1262516"
  },
  {
    "id": "64529f905aed26898814138f",
    "name": "First test",
    "schoolId": "0491990"
  },
  {
    "id": "6347049ecb2dbedf2d60f9d7",
    "name": "GEO Personal Travel",
    "schoolId": "0412902"
  },
  {
    "id": "645425ef75b96ab2017f14fa",
    "name": "GNOTOBIOTIC CORE PROJECT REQUEST FORM",
    "schoolId": "0491990"
  },
  {
    "id": "64a5a91147fa4800f90a3d7c",
    "name": "GSTEG report - H",
    "schoolId": "0565198"
  },
  {
    "id": "61f9b9e2946d1187831f2681",
    "name": "Gomes - Approval of Institutional Transfer Courses",
    "schoolId": null
  },
  {
    "id": "64bc59c3e3aad200fe74f317",
    "name": "Grouper Groups + Workflows",
    "schoolId": "1262516"
  },
  {
    "id": "633aea84d0919b24c274f9e0",
    "name": "IACUC Inspection Form",
    "schoolId": "0905997"
  },
  {
    "id": "641cc0b34a69400430027aca",
    "name": "IACUC PQF Review",
    "schoolId": "1262516"
  },
  {
    "id": "6424a0a7e3151637cbbefef2",
    "name": "IACUC Personnel Qualification Form",
    "schoolId": "1262516"
  },
  {
    "id": "6468f3ded109b1811302b07e",
    "name": "IACUC Protocol Application Form",
    "schoolId": "1262516"
  },
  {
    "id": "64a5a8f347fa4800f9f91278",
    "name": "ICPG Application -K",
    "schoolId": "0565198"
  },
  {
    "id": "64a5a90247fa4800f96d961d",
    "name": "ICPG report - H",
    "schoolId": "0565198"
  },
  {
    "id": "62aba60d434a093ea17ad78a",
    "name": "IdM Intern First Project",
    "schoolId": "0374183"
  },
  {
    "id": "64835dfea58bc2020997161f",
    "name": "Integration Request",
    "schoolId": "0205064"
  },
  {
    "id": "6272fc236b8aac32f718041a",
    "name": "Internal Research Admin Communications",
    "schoolId": "0268537"
  },
  {
    "id": "64b545d00a2fde00f8cfa69f",
    "name": "Internal Research Admin Communications (sww)",
    "schoolId": "0050896"
  },
  {
    "id": "623de1260a763a744c4a3a75",
    "name": "Jason-test1",
    "schoolId": "0413694"
  },
  {
    "id": "638e612a92400dbeb5f7e4c6",
    "name": "KB-PTS-LOOKUP",
    "schoolId": "1262516"
  },
  {
    "id": "63921fef4b2cb30fa2ec4d0d",
    "name": "KB-PTS-STAFF-LOOKUP",
    "schoolId": "1262516"
  },
  {
    "id": "6356e33a2861065425f5417a",
    "name": "KHNTest",
    "schoolId": "0099511"
  },
  {
    "id": "63e6644ed794849ea3836947",
    "name": "Kenan Institute Non-Comp Payroll Intake",
    "schoolId": "1187620"
  },
  {
    "id": "6460b8dce85d2d64cf247d48",
    "name": "Kneifel - Simple Request Form",
    "schoolId": "0598172"
  },
  {
    "id": "64bc72dae3aad200fe8b1667",
    "name": "Kuali Data Dictionary",
    "schoolId": "1262516"
  },
  {
    "id": "642b3b1fe3151637cb120ef1",
    "name": "Kuali Feature Requests",
    "schoolId": "0622099"
  },
  {
    "id": "64bc68a6e3aad200fe0c7f41",
    "name": "Kuali Groups + Workflows",
    "schoolId": "1262516"
  },
  {
    "id": "62323f633ea437008daa01bf",
    "name": "Kuali Interest Form",
    "schoolId": "0622099"
  },
  {
    "id": "627ec6e19773c33636a9572b",
    "name": "Lab worker or research team member cybersecurity attestation",
    "schoolId": "0576323"
  },
  {
    "id": "63500ef6376749e9b5a52c4f",
    "name": "Math Department Memorandum of Understanding",
    "schoolId": "0069781"
  },
  {
    "id": "624ef1457c4959c2fd062730",
    "name": "Math Dept Graduate Student Annual Reports (COPY FOR TESTING)",
    "schoolId": null
  },
  {
    "id": "624dd069938843245b7107d1",
    "name": "Mathematics Department Graduate Student Annual Reports",
    "schoolId": "0069781"
  },
  {
    "id": "6440003046665c50e37f1cc3",
    "name": "Mathematics Department Graduate Student Exit Survey",
    "schoolId": "0069781"
  },
  {
    "id": "6384d30aa174196dc6f05881",
    "name": "MediaWiki Intake (deprecated)",
    "schoolId": "0205064"
  },
  {
    "id": "64a5e5a447fa4800f96bce71",
    "name": "Modify account or mailing list",
    "schoolId": "1262516"
  },
  {
    "id": "62e19d7c47b3bf08722e56f3",
    "name": "Monkeypox Intake Draft",
    "schoolId": "0665738"
  },
  {
    "id": "62c5ee2c285372abc1324bd8",
    "name": "Monkeypox Symptom Monitoring (DEV)",
    "schoolId": "0050896"
  },
  {
    "id": "62a8cd8d314692fff5554f91",
    "name": "New",
    "schoolId": "0696512"
  },
  {
    "id": "62d1ae0a682158a25fb52c8a",
    "name": "New Connections in Math 2022",
    "schoolId": "0069781"
  },
  {
    "id": "640119aa2501224a7e551924",
    "name": "New Customer",
    "schoolId": "0229768"
  },
  {
    "id": "635fd2e1784fc58329a632da",
    "name": "New Dining Retail Location Setup Request",
    "schoolId": "0478307"
  },
  {
    "id": "63c6ee488f97792ee80b8c41",
    "name": "Non-Duke Data+/Climate+/Ethics+ Application 2023",
    "schoolId": "0583483"
  },
  {
    "id": "635fbb11784fc583299a4472",
    "name": "OASIS RTS Test App",
    "schoolId": "0971968"
  },
  {
    "id": "63598f45784fc583290d1be8",
    "name": "OERAF CE Confirmation Form - Preapproved Only",
    "schoolId": "0493710"
  },
  {
    "id": "63e3af9fcacd50676accdf8b",
    "name": "OERAF CE Request Form",
    "schoolId": "0493710"
  },
  {
    "id": "63c151304f104d0015808c57",
    "name": "OERAF CE Request Form (archived)",
    "schoolId": "0493710"
  },
  {
    "id": "64a6e0c20278f200f8f21744",
    "name": "OIS Test Form - HC blder",
    "schoolId": "0565198"
  },
  {
    "id": "6492051b58ebbf0209186a70",
    "name": "OIS Test Form - Humza + Workflow",
    "schoolId": "0565198"
  },
  {
    "id": "649326d2560d8302091a5e44",
    "name": "OIS Test Form - Kathleen + Workflow",
    "schoolId": "0565198"
  },
  {
    "id": "62582c3688380fc89306d7b5",
    "name": "OIT - Kuali Implementation Request",
    "schoolId": "0050896"
  },
  {
    "id": "622b3ada251c65b137805084",
    "name": "OIT - Report An Outage",
    "schoolId": "0260768"
  },
  {
    "id": "636e8357c34799c6d0d4d788",
    "name": "OIT LINK Device Intake",
    "schoolId": "0598512"
  },
  {
    "id": "6435a4152e6d07792197c4dc",
    "name": "OIT Monitoring Kuali Service - anonymous",
    "schoolId": "0050896"
  },
  {
    "id": "6435a65aea80859ba6d416dd",
    "name": "OIT Monitoring Kuali Service - authenticated",
    "schoolId": "0050896"
  },
  {
    "id": "647629b2f0ff2b0209f44e62",
    "name": "OIT Project Intake Form",
    "schoolId": "0674723"
  },
  {
    "id": "638a2f70d57016ce3178d35a",
    "name": "OIT SD New Hire Checklist",
    "schoolId": "0598512"
  },
  {
    "id": "649b52f1eddd2c00f8b83f55",
    "name": "OIT Service Desk Request",
    "schoolId": "1262516"
  },
  {
    "id": "63da9897c44b02a2c21673af",
    "name": "OUR Contact Us",
    "schoolId": "0693456"
  },
  {
    "id": "634436d3f37d0325965adee0",
    "name": "Onboarding - new hire - Trinity College of Arts and Sciences",
    "schoolId": "0299855"
  },
  {
    "id": "63e666c43981ce38d8189554",
    "name": "PAS Grad Student Supplement Request",
    "schoolId": "1187620"
  },
  {
    "id": "6446a8a71b1ea159c094ab2d",
    "name": "PAS Non-Comp Payroll Intake",
    "schoolId": "1187620"
  },
  {
    "id": "64513d42d083ffd37253bb63",
    "name": "PAS RECEIPT TEST",
    "schoolId": "1187620"
  },
  {
    "id": "63c7015535a341d4910ebda8",
    "name": "PAS Receipt Submittal",
    "schoolId": "1187620"
  },
  {
    "id": "640f8da4e2a126b04b18e1e3",
    "name": "PAS Remove Student from Payroll",
    "schoolId": "1187620"
  },
  {
    "id": "636d4781b46ecadfbbaab53e",
    "name": "PAS Request Payment to Vendor",
    "schoolId": "1187620"
  },
  {
    "id": "636d4f62ad4b66cb6f6e4efd",
    "name": "PAS Request for Student Hire",
    "schoolId": "1187620"
  },
  {
    "id": "649b230ceddd2c00f81afe7c",
    "name": "PTS: Bike Commuter Registration",
    "schoolId": "0880513"
  },
  {
    "id": "62ba047939ab27aa0884ebbf",
    "name": "PTS: Carpool Application",
    "schoolId": "0493251"
  },
  {
    "id": "649b1f21eddd2c00f8c8f2c5",
    "name": "PTS: Passenger Van Driver Training Request",
    "schoolId": "0880513"
  },
  {
    "id": "644a8da6c39ebc327aeb0849",
    "name": "PTS: Special Events Parking Request",
    "schoolId": "0880513"
  },
  {
    "id": "628d270dd7da59860ddc558c",
    "name": "PTS: Time-off Request",
    "schoolId": "0493251"
  },
  {
    "id": "6499d80f9e600900eea2823c",
    "name": "PTS: Transit Interior Advertisement Request",
    "schoolId": "0880513"
  },
  {
    "id": "649de20dc949cd00f9680771",
    "name": "PTS: Validation and Temporary Permit Order Form",
    "schoolId": "0880513"
  },
  {
    "id": "630f7208f4e6e8f97ec9cc43",
    "name": "Pending Name",
    "schoolId": "0452821"
  },
  {
    "id": "64b1d5185e830200f91fe14d",
    "name": "Prod OIT Service Desk Request",
    "schoolId": "1262516"
  },
  {
    "id": "64b2ad8c5e830200f9126a93",
    "name": "Prod OIT Service Desk Request test",
    "schoolId": "1262516"
  },
  {
    "id": "64ada2d586ae0500f9fba67a",
    "name": "Prod Trinity Help Request",
    "schoolId": "1262516"
  },
  {
    "id": "6463d0276637b308f6f586ca",
    "name": "Production Colony Request for Mice",
    "schoolId": "0491990"
  },
  {
    "id": "627c1d58faf738a7a5dbbc22",
    "name": "QuickAppforTechExpo",
    "schoolId": "0622099"
  },
  {
    "id": "63496716eb7d7f3efa794396",
    "name": "RAA Application",
    "schoolId": "0493710"
  },
  {
    "id": "63499d3ceb7d7f3efab47353",
    "name": "RAA Supervisor Approval",
    "schoolId": "0493710"
  },
  {
    "id": "64a5a8e447fa4800f9841c30",
    "name": "RR Dossier -K",
    "schoolId": "0565198"
  },
  {
    "id": "62ed2ae6a34ae53464572750",
    "name": "Reference Group Access Approval",
    "schoolId": "0452821"
  },
  {
    "id": "63890d2ca174196dc6bb1d94",
    "name": "Report a Housing Wireless Lock Issue",
    "schoolId": "0478307"
  },
  {
    "id": "63890aa5a174196dc6b87a1b",
    "name": "Report a Vending or Laundry Reader Problem",
    "schoolId": "0478307"
  },
  {
    "id": "64a4ac7247fa4800f9d78992",
    "name": "Report a WiFi issue",
    "schoolId": "1262516"
  },
  {
    "id": "636d2ff14e34285df01d997e",
    "name": "Report an Urgent Problem or Issue",
    "schoolId": "0478307"
  },
  {
    "id": "62e90fa40045981b3e3c60b7",
    "name": "Request Group Manager Support Group",
    "schoolId": "0374183"
  },
  {
    "id": "64b9497e810ad800fee177ec",
    "name": "Request Logging for Microservices",
    "schoolId": "1262516"
  },
  {
    "id": "633319678775b1a9c489c2da",
    "name": "Request RC Compute Node Purchase",
    "schoolId": "0823586"
  },
  {
    "id": "64ac6db386ae0500f9169316",
    "name": "Request information or assistance",
    "schoolId": "0622099"
  },
  {
    "id": "64a552b447fa4800f9f9424e",
    "name": "Request information or assistance - deprecated",
    "schoolId": "1262516"
  },
  {
    "id": "633359c08775b1a9c4a7657c",
    "name": "SSN Waiver Form",
    "schoolId": "1250997"
  },
  {
    "id": "64a5a90947fa4800f931e03c",
    "name": "SSRI Faculty Vote for Secondary Appt. -K",
    "schoolId": "0565198"
  },
  {
    "id": "64b1876b5e830200f95cd623",
    "name": "STAGING: Trinity Graduation Date Change Form",
    "schoolId": "1262516"
  },
  {
    "id": "62700d68b0b04995e2e819b2",
    "name": "Sample Locking Sections Workflow",
    "schoolId": "0598172"
  },
  {
    "id": "647781157ff17702085494a2",
    "name": "Sample Trinity Data Form",
    "schoolId": "1251242"
  },
  {
    "id": "64a5e7cd47fa4800f9debe2f",
    "name": "Software Container Request",
    "schoolId": "1262516"
  },
  {
    "id": "6489fe2f96113b0208e585f2",
    "name": "StatSci 199L Waiting List",
    "schoolId": "0911720"
  },
  {
    "id": "64764c8193e72f020934203d",
    "name": "StatSci GWD Thesis Application",
    "schoolId": "0911720"
  },
  {
    "id": "6395d5ae4b2cb30fa25c2d3f",
    "name": "StatSci GWD Thesis Progress Report",
    "schoolId": "0911720"
  },
  {
    "id": "63b759b22bfd888abec05e5c",
    "name": "StatSci Independent Study Application",
    "schoolId": "0911720"
  },
  {
    "id": "64503120d083ffd37239c763",
    "name": "StatSci Mentor for Mini REU",
    "schoolId": "0911720"
  },
  {
    "id": "63adb1d7776ba3d8a325add5",
    "name": "StatSci PhD research consulting sessions leader",
    "schoolId": "0911720"
  },
  {
    "id": "623ddf480a763a744c4a2697",
    "name": "Stinnett - Test",
    "schoolId": "0497458"
  },
  {
    "id": "62d5791610e7d4bf27ad9a4c",
    "name": "Student Health - Alternate Housing Request",
    "schoolId": "0050896"
  },
  {
    "id": "6494a889c97f4102090c5858",
    "name": "Summer 2 TA for STA 199L",
    "schoolId": "0911720"
  },
  {
    "id": "649db4c1c949cd00f937fea9",
    "name": "Summer Academy Course",
    "schoolId": "0464281"
  },
  {
    "id": "649c491eeddd2c00f822a9b3",
    "name": "Summer Academy Instructor form 2024 -K",
    "schoolId": "0565198"
  },
  {
    "id": "6452b9c6d7b5c16362b6ec50",
    "name": "Supplemental Life Insurance Form",
    "schoolId": "0219718"
  },
  {
    "id": "646675ea11f99e81d7eef5ff",
    "name": "Supplemental Payment Request",
    "schoolId": "0199801"
  },
  {
    "id": "64529805d7b5c1636261de2c",
    "name": "System Setup Checklist",
    "schoolId": "0702348"
  },
  {
    "id": "63ea53b24db1119f91a9996e",
    "name": "System for Available Employment Position",
    "schoolId": "0702348"
  },
  {
    "id": "63344463d0919b24c26bb341",
    "name": "TA Skills List",
    "schoolId": "0911720"
  },
  {
    "id": "64a5ebb947fa4800f94d1cf5",
    "name": "TCA&S Facilities Help or Door Access Request",
    "schoolId": "1262516"
  },
  {
    "id": "644d64f7c39ebc327a5fb0aa",
    "name": "TEST - OIT Purchase Request form",
    "schoolId": "0674723"
  },
  {
    "id": "637ab1bdb9973bd408274425",
    "name": "TEST OERAF",
    "schoolId": "0493710"
  },
  {
    "id": "63952b4b4b2cb30fa25a9d6a",
    "name": "TEST: Trinity Graduation Date Change Form",
    "schoolId": "0674723"
  },
  {
    "id": "63a339c33c8de5becd919df0",
    "name": "TGS McKinney Loan application",
    "schoolId": "0493251"
  },
  {
    "id": "63f630c3cfadfa18045788d3",
    "name": "TGS Summer Aid Application",
    "schoolId": "0493251"
  },
  {
    "id": "6425d8192dc31f71379c8790",
    "name": "TGS Support for Summer Planning",
    "schoolId": "0493251"
  },
  {
    "id": "642dc33f2dc31f7137b0ab52",
    "name": "TGS committee approval form",
    "schoolId": "0493251"
  },
  {
    "id": "649ddcf9c949cd00f941d63a",
    "name": "TGS financial assistance",
    "schoolId": "0493251"
  },
  {
    "id": "63bc36dfa6c77c535d385e9a",
    "name": "TGS task tracking",
    "schoolId": "0493251"
  },
  {
    "id": "64a869b798339100fb213854",
    "name": "THR SN test",
    "schoolId": "0622099"
  },
  {
    "id": "6356cbdd2861065425c803ad",
    "name": "TRAIN: EOHW Safety Report to OESO",
    "schoolId": "0665738"
  },
  {
    "id": "6356cbcb86082e45f7c7e2c1",
    "name": "TRAIN: EOHW exposures intake",
    "schoolId": "0665738"
  },
  {
    "id": "645291fcd7b5c1636259bf34",
    "name": "TechExpo 2023 Presenter Attendance",
    "schoolId": "0205064"
  },
  {
    "id": "64554bea9c0c75ad213e9278",
    "name": "Technical Service Request Form",
    "schoolId": "0491990"
  },
  {
    "id": "62e9470f61603bb987acfcd0",
    "name": "Test",
    "schoolId": "0374183"
  },
  {
    "id": "63729546b46ecadfbb018ddb",
    "name": "Test Alpha 6825-1",
    "schoolId": "0453153"
  },
  {
    "id": "632b099f9852dfe156c3a978",
    "name": "Test App",
    "schoolId": "0550394"
  },
  {
    "id": "6494a246c97f410209e3ff7b",
    "name": "Test CrUX Form",
    "schoolId": "0215274"
  },
  {
    "id": "62d173b3682158a25fb32e34",
    "name": "Test Feedback",
    "schoolId": "0632465"
  },
  {
    "id": "6390b0a04dc09bc59f2f859c",
    "name": "Test Form",
    "schoolId": "0478307"
  },
  {
    "id": "625db53265ac6c76eda33404",
    "name": "Test Only",
    "schoolId": "0069781"
  },
  {
    "id": "63627693c34799c6d071721d",
    "name": "Test a11y",
    "schoolId": "0654032"
  },
  {
    "id": "634d8120eb7d7f3efa6fabdc",
    "name": "Test app",
    "schoolId": "0486649"
  },
  {
    "id": "63470083cb2dbedf2d5c612d",
    "name": "Transfer Credit for Practicum Courses",
    "schoolId": "0412902"
  },
  {
    "id": "62fff481a3d5215028d76261",
    "name": "Trent Fund application",
    "schoolId": "0219955"
  },
  {
    "id": "647fe896e4467102096c7c82",
    "name": "Trinity APIs",
    "schoolId": "1262516"
  },
  {
    "id": "6495a6e3635e93020961a66f",
    "name": "Trinity Help Request",
    "schoolId": "0622099"
  },
  {
    "id": "6488a2065d2fc80209db71d5",
    "name": "Trinity Onboarding App",
    "schoolId": "1251242"
  },
  {
    "id": "64761733fcbe980208a102fa",
    "name": "Trinity Research Leave Fellowship Form",
    "schoolId": "0254568"
  },
  {
    "id": "64a5a8fb47fa4800f90bee19",
    "name": "UPEF application - H",
    "schoolId": "0565198"
  },
  {
    "id": "61f9b95c946d1187831f20a6",
    "name": "USPS validate address example",
    "schoolId": null
  },
  {
    "id": "62322525830ecdba0ad43f54",
    "name": "USPS validate address example - test",
    "schoolId": "0435319"
  },
  {
    "id": "6388f801a174196dc6a823e6",
    "name": "Unlock My Door for a Scheduled Event",
    "schoolId": "0478307"
  },
  {
    "id": "6480a1d0dae279020803942c",
    "name": "VSTD Decline form",
    "schoolId": "0219718"
  },
  {
    "id": "6441a2ab2c094f19f0e64b64",
    "name": "Vacancy Management PAMC",
    "schoolId": "0383314"
  },
  {
    "id": "649f2a2715acef00f9d71e8b",
    "name": "VoiceMail Options",
    "schoolId": "0622099"
  },
  {
    "id": "6439bdac15fa86aa9e91713b",
    "name": "Voluntary Disability Enrollment Form",
    "schoolId": "0219718"
  },
  {
    "id": "623360c33ea437008db2c255",
    "name": "adm88: test",
    "schoolId": "0912367"
  },
  {
    "id": "623368d21e784f022139b3fd",
    "name": "avt6: test app",
    "schoolId": "1171542"
  },
  {
    "id": "64628336e85d2d64cfc55104",
    "name": "ca139 + sjc98 test form",
    "schoolId": "1262516"
  },
  {
    "id": "643eb28361800c9bed658db0",
    "name": "ca139 - EOHW - vaccination outside documentation (DEV - TEST)",
    "schoolId": "0674723"
  },
  {
    "id": "648b4c51499d630209b34294",
    "name": "ca139 - OIT PASM Project Intake Form (Copy)",
    "schoolId": "0095725"
  },
  {
    "id": "644712eec39ebc327a6267c7",
    "name": "ca139: Color Vision Screening Form",
    "schoolId": "0674723"
  },
  {
    "id": "63850281d57016ce3105e507",
    "name": "ca139: EOHW Placement Documentation Portal (TEST)",
    "schoolId": "0674723"
  },
  {
    "id": "633af5f6d0919b24c27a4fc9",
    "name": "ca139: EOHW Placement Health Assessment",
    "schoolId": "0050896"
  },
  {
    "id": "63601f687c2646c1290a746f",
    "name": "ca139: OSHA QUESTIONNAIRE FOR RESPIRATOR USERS",
    "schoolId": "0674723"
  },
  {
    "id": "63864656a174196dc69255dd",
    "name": "ca139: Trinity Forms - Grad Date Change Accel Credit",
    "schoolId": "0674723"
  },
  {
    "id": "645e5a96e85d2d64cf8ac7f1",
    "name": "chilt004 - Data Use Agreement Form",
    "schoolId": "0674723"
  },
  {
    "id": "62b619b712336bc468da2ef8",
    "name": "date validate example",
    "schoolId": "0435319"
  },
  {
    "id": "6483735da58bc202096222cd",
    "name": "jem173 - Trinity Course Withdrawal Form",
    "schoolId": "0674723"
  },
  {
    "id": "649444f508f6b10209149152",
    "name": "jem173 - test app",
    "schoolId": "1332643"
  },
  {
    "id": "62b9bd911d9ddf080c92f2df",
    "name": "jsp36: Testing Form",
    "schoolId": "0690967"
  },
  {
    "id": "62e7f52bf196202aa3fe3fb8",
    "name": "kes85: EOHW exposures intake (Copy)",
    "schoolId": "0665738"
  },
  {
    "id": "61f45ac31fecbe5d4edbd2f4",
    "name": "mccahill - test",
    "schoolId": "0435319"
  },
  {
    "id": "623229673ea437008da7de9b",
    "name": "mccahill: POC purchase request",
    "schoolId": "0435319"
  },
  {
    "id": "62324cd43ea437008daafbec",
    "name": "mccahill: Personnel Qualifications Form - test",
    "schoolId": "0435319"
  },
  {
    "id": "623228cb3ea437008da7cc88",
    "name": "mccahill: export",
    "schoolId": "0435319"
  },
  {
    "id": "62322928830ecdba0ad4bd92",
    "name": "mccahill: test purchase request",
    "schoolId": "0435319"
  },
  {
    "id": "62cc1c9ca278424f0737eea8",
    "name": "mgc36: test app",
    "schoolId": "0050896"
  },
  {
    "id": "62b5f65f8809f00e79fff760",
    "name": "ns339: Personnel Qualifications Form - Anna's Test 6/24/22",
    "schoolId": "0630762"
  },
  {
    "id": "6239f1eb6359379690a971aa",
    "name": "ns339: Personnel Qualifications Form - test",
    "schoolId": "0050896"
  },
  {
    "id": "626ff5a5ad1df16b2b4b0b5c",
    "name": "ns339: Personnel Qualifications Form - test (Copy)",
    "schoolId": "1105835"
  },
  {
    "id": "63ee4ae93981ce38d88ce585",
    "name": "pgg112.EOHW - Exposures Intake with Research Settings Form DRAFT",
    "schoolId": "0665738"
  },
  {
    "id": "62bcaf288b7fa8a9b98a1111",
    "name": "pgg12 NonBBF Exposure Hotline Draft",
    "schoolId": "0665738"
  },
  {
    "id": "6238ef54d9b23561325b7c4e",
    "name": "phone number validate example",
    "schoolId": "0435319"
  },
  {
    "id": "6287af2de17201263e95a228",
    "name": "royal: Matt's test",
    "schoolId": "0205064"
  },
  {
    "id": "628f9c57105a9f492321fc86",
    "name": "saw38: EOHW Page 3 Workers Comp Form",
    "schoolId": "0050896"
  },
  {
    "id": "624deb84421062c09160bf27",
    "name": "saw38: test app",
    "schoolId": "0050896"
  },
  {
    "id": "64774d23c7924c02090eed4f",
    "name": "sjc dynamic workflow testing",
    "schoolId": "1262516"
  },
  {
    "id": "64b06c675e830200f9999b90",
    "name": "sjc98 copy of prod outside vax form",
    "schoolId": "1262516"
  },
  {
    "id": "62a7985930e10641bdef26c1",
    "name": "test - idm",
    "schoolId": "0452821"
  },
  {
    "id": "6365559dc34799c6d0c3b0ef",
    "name": "th140: MyParking Event Replication Request",
    "schoolId": "0592877"
  },
  {
    "id": "64838799e5faa202094682d1",
    "name": "vjo - chilt004 - Data Use Agreement Form (Copy)",
    "schoolId": "0674723"
  }
]